------------------------------------------------------------------------
r854567 | mpyne | 2008-08-29 22:06:27 +0200 (Fri, 29 Aug 2008) | 3 lines

Backport screensaver icon name fixes to KDE 4.1.  Will be available in the
4.1.2 release.

------------------------------------------------------------------------
r859357 | scripty | 2008-09-10 08:48:29 +0200 (Wed, 10 Sep 2008) | 1 line

SVN_SILENT made messages (.desktop file)
------------------------------------------------------------------------
