------------------------------------------------------------------------
r1227327 | whiting | 2011-04-08 06:33:44 +1200 (Fri, 08 Apr 2011) | 1 line

remove kdeedu from svn as 4.6.3 will come from git repos
------------------------------------------------------------------------
r1227328 | whiting | 2011-04-08 06:35:03 +1200 (Fri, 08 Apr 2011) | 1 line

forgot to remove parley
------------------------------------------------------------------------
