------------------------------------------------------------------------
r836925 | zander | 2008-07-23 13:41:28 +0200 (Wed, 23 Jul 2008) | 2 lines

Add spacing for readability

------------------------------------------------------------------------
r836934 | zander | 2008-07-23 14:26:05 +0200 (Wed, 23 Jul 2008) | 2 lines

Remove double margins.

------------------------------------------------------------------------
r837218 | lunakl | 2008-07-24 11:24:17 +0200 (Thu, 24 Jul 2008) | 3 lines

Add freetype config check.


------------------------------------------------------------------------
r837467 | mwoehlke | 2008-07-24 20:54:11 +0200 (Thu, 24 Jul 2008) | 2 lines

fix wrong initial tab (zander, please be careful! ...not that I haven't made the same mistake :-))

------------------------------------------------------------------------
r837487 | ppenz | 2008-07-24 21:51:06 +0200 (Thu, 24 Jul 2008) | 3 lines

Backport of 837486: fix crash when opening a lot of columns and going back very fast by clicking on each breadcrumb of the URL navigator

CCBUG: 164304
------------------------------------------------------------------------
r838042 | ppenz | 2008-07-26 16:11:33 +0200 (Sat, 26 Jul 2008) | 3 lines

Backport of 838041: Tooltips are shown on wrong position in combination with a dual screen setup. Thanks to Lucas Murray for the patch!

CCBUG: 167205
------------------------------------------------------------------------
r838048 | aacid | 2008-07-26 16:36:23 +0200 (Sat, 26 Jul 2008) | 2 lines

Backport r838046 workspace/trunk/KDE/kdebase/workspace/kcontrol/kfontinst/kcmfontinst/GroupList.cpp: Give Standard a context, some teams need it to get a correct translation

------------------------------------------------------------------------
r838111 | mlaurent | 2008-07-26 21:07:20 +0200 (Sat, 26 Jul 2008) | 3 lines

Backport:
Fix mem leak

------------------------------------------------------------------------
r838114 | mlaurent | 2008-07-26 21:10:51 +0200 (Sat, 26 Jul 2008) | 3 lines

Backport:
minor fix

------------------------------------------------------------------------
r838149 | ppenz | 2008-07-26 23:58:29 +0200 (Sat, 26 Jul 2008) | 4 lines

Backport: Fixed issue that the 22x22 version of "user-home" was vertically aligned 2 pixels to low (e. g. compare alignment with "user-home" of other sizes or the 22x22 versions of other folders like "folder-red").

CCMAIL: nuno@oxygen-icons.org
CCMAIL: uwolfer@kde.org
------------------------------------------------------------------------
r838185 | scripty | 2008-07-27 06:40:50 +0200 (Sun, 27 Jul 2008) | 1 line

SVN_SILENT made messages (.desktop file)
------------------------------------------------------------------------
r838278 | ppenz | 2008-07-27 14:58:33 +0200 (Sun, 27 Jul 2008) | 3 lines

Backport to 4.1: fixed vertical alignment of the 22x22 version, which does not match with the version in oxygen/scalable/places and other folder icons (the corresponding PNG icon has already been fixed on a previous commit)

CCBUG: 156679
------------------------------------------------------------------------
r838354 | ossi | 2008-07-27 17:48:05 +0200 (Sun, 27 Jul 2008) | 2 lines

backport: revert dirk's "revert" and fix activation the right way

------------------------------------------------------------------------
r838405 | ossi | 2008-07-27 20:45:07 +0200 (Sun, 27 Jul 2008) | 2 lines

backport: fix time management wrt time jumps

------------------------------------------------------------------------
r838452 | woebbe | 2008-07-27 23:30:35 +0200 (Sun, 27 Jul 2008) | 3 lines

GCC 4.3: warning: suggest parentheses around arithmetic in operand of |

looks like an error
------------------------------------------------------------------------
r838454 | woebbe | 2008-07-27 23:38:06 +0200 (Sun, 27 Jul 2008) | 3 lines

GCC 4.3: warning: suggest parentheses around comparison in operand of &

looks like an error
------------------------------------------------------------------------
r838485 | aseigo | 2008-07-28 01:00:25 +0200 (Mon, 28 Jul 2008) | 3 lines

backport 838477: when a new activity is added, don't move more than necessary to show it
this seems to fix dragging the view around too

------------------------------------------------------------------------
r838526 | scripty | 2008-07-28 06:44:50 +0200 (Mon, 28 Jul 2008) | 1 line

SVN_SILENT made messages (.desktop file)
------------------------------------------------------------------------
r838647 | lunakl | 2008-07-28 13:54:33 +0200 (Mon, 28 Jul 2008) | 5 lines

Discard Deleted windows when finishing compositing, so that they're
not reused if compositing is started again.
BUG: 152914


------------------------------------------------------------------------
r838681 | mueller | 2008-07-28 15:47:44 +0200 (Mon, 28 Jul 2008) | 1 line

merge 838679
------------------------------------------------------------------------
r838723 | lunakl | 2008-07-28 17:54:08 +0200 (Mon, 28 Jul 2008) | 3 lines

Don't report ntp error when ntp is not enabled.


------------------------------------------------------------------------
r838800 | adridg | 2008-07-28 20:58:58 +0200 (Mon, 28 Jul 2008) | 1 line

All the ping-ponging around the autolock managed to miss one ifdef for when you don't have the XScreensaver stuff at all
------------------------------------------------------------------------
r838870 | aseigo | 2008-07-29 00:55:13 +0200 (Tue, 29 Jul 2008) | 2 lines

backport r838833 and r838869 to fix registering-on-naming

------------------------------------------------------------------------
r838890 | aseigo | 2008-07-29 02:25:59 +0200 (Tue, 29 Jul 2008) | 3 lines

backport fix for 167551 to 4.0.x
CCBUG:167551

------------------------------------------------------------------------
r838896 | aseigo | 2008-07-29 02:32:30 +0200 (Tue, 29 Jul 2008) | 2 lines

backport resize fix by alex

------------------------------------------------------------------------
r838923 | aseigo | 2008-07-29 05:20:21 +0200 (Tue, 29 Jul 2008) | 2 lines

backport fix of backport

------------------------------------------------------------------------
r839101 | mart | 2008-07-29 13:50:21 +0200 (Tue, 29 Jul 2008) | 2 lines

backport of 839007 fix mem leak

------------------------------------------------------------------------
r839193 | lunakl | 2008-07-29 15:37:37 +0200 (Tue, 29 Jul 2008) | 4 lines

Fix out-of-bounds array access when increasing screen count with randr1.2.
BUG: 163045


------------------------------------------------------------------------
r839261 | huynhhuu | 2008-07-29 18:37:41 +0200 (Tue, 29 Jul 2008) | 2 lines

Backport of r835246: Give arrows on toolbuttons their proper direction 

------------------------------------------------------------------------
r839361 | aacid | 2008-07-29 23:46:28 +0200 (Tue, 29 Jul 2008) | 4 lines

backport r839360 runtime/trunk/KDE/kdebase/runtime/kioslave/thumbnail/imagethumbnail.desktop:
it's image/jp2 not image/jpeg2000
And now, jp2 previews in dolphin :-)

------------------------------------------------------------------------
r839399 | sebsauer | 2008-07-30 01:49:30 +0200 (Wed, 30 Jul 2008) | 4 lines

backport r839398
Fix possible prob with certain strange cycle of application submenu.
BUG:165484

------------------------------------------------------------------------
r839410 | sebsauer | 2008-07-30 02:30:27 +0200 (Wed, 30 Jul 2008) | 3 lines

backport r839409
fix crash on startup. second part of r838918, fixes r839403

------------------------------------------------------------------------
r839454 | scripty | 2008-07-30 07:33:56 +0200 (Wed, 30 Jul 2008) | 1 line

SVN_SILENT made messages (.desktop file)
------------------------------------------------------------------------
r839604 | lukas | 2008-07-30 13:52:07 +0200 (Wed, 30 Jul 2008) | 2 lines

load dependent catalogs

------------------------------------------------------------------------
r839636 | trueg | 2008-07-30 14:50:37 +0200 (Wed, 30 Jul 2008) | 1 line

backport from trunk to fix bug 167655
------------------------------------------------------------------------
r839848 | aseigo | 2008-07-31 01:15:56 +0200 (Thu, 31 Jul 2008) | 3 lines

backport constraints-before-init fix for the menu that afflicts some people (still not sure why, though; no idea what triggers that odd behaviour)
BUG:167312

------------------------------------------------------------------------
r839878 | alexmerry | 2008-07-31 03:05:02 +0200 (Thu, 31 Jul 2008) | 7 lines

Backport of r839877:

We want to change the tab, not just the view.

Fixes the issue: open three tabs.  Select the second one and close it.  Now right tab is active, but content for left tab is shown.


------------------------------------------------------------------------
r839900 | scripty | 2008-07-31 06:50:29 +0200 (Thu, 31 Jul 2008) | 1 line

SVN_SILENT made messages (.desktop file)
------------------------------------------------------------------------
r839927 | mkretz | 2008-07-31 08:22:50 +0200 (Thu, 31 Jul 2008) | 2 lines

backport: use qreal constant instead of double constant, to fix compilation on systems with qreal == float

------------------------------------------------------------------------
r840307 | ogoffart | 2008-07-31 23:02:45 +0200 (Thu, 31 Jul 2008) | 3 lines

Backport:   KUrlRequester add file:// in the config, and QFile can't open that URL


------------------------------------------------------------------------
r840435 | mlaurent | 2008-08-01 08:43:14 +0200 (Fri, 01 Aug 2008) | 3 lines

Backport:
Fix mem leak

------------------------------------------------------------------------
r840458 | trueg | 2008-08-01 10:02:05 +0200 (Fri, 01 Aug 2008) | 1 line

Backport: No need to perform a complete removeAllStatements which takes forever since we delete the data on disk anyway
------------------------------------------------------------------------
r840477 | mueller | 2008-08-01 10:59:14 +0200 (Fri, 01 Aug 2008) | 1 line

fix link
------------------------------------------------------------------------
r840757 | menard | 2008-08-01 20:22:05 +0200 (Fri, 01 Aug 2008) | 2 lines

backport rev 840754 from trunk : restore properly custom size of kickoff

------------------------------------------------------------------------
r840866 | sebsauer | 2008-08-02 03:52:47 +0200 (Sat, 02 Aug 2008) | 7 lines

backport r840393, r840396, r840399, r840842 and r840844
Fixes crash-cases, strange/wrong cycles and let's the classic menu update itself on changes.

BUG:167688
BUG:167620


------------------------------------------------------------------------
r840870 | aseigo | 2008-08-02 04:02:34 +0200 (Sat, 02 Aug 2008) | 3 lines

backport r840869 for Chani: no more lost actions, and the zoomout action is disabled and enabled properly for *all* activities.


------------------------------------------------------------------------
r840872 | sebsauer | 2008-08-02 04:29:38 +0200 (Sat, 02 Aug 2008) | 1 line

ups, that part slipped accidently into the backport :-/ sorry. SVN_SILENT
------------------------------------------------------------------------
r841265 | johnflux | 2008-08-03 00:20:07 +0200 (Sun, 03 Aug 2008) | 2 lines

Fix graph corruption.  Already committed to head.

------------------------------------------------------------------------
r841420 | ppenz | 2008-08-03 12:02:23 +0200 (Sun, 03 Aug 2008) | 3 lines

Backport of 841418: Prevent that Konqueror crashs if pressing F2 (= Rename) although no items are selected. TODO: disable the rename action (and other selection dependent actions) when no items are selected.

CCBUG: 168183
------------------------------------------------------------------------
r841475 | ppenz | 2008-08-03 12:49:28 +0200 (Sun, 03 Aug 2008) | 6 lines

Backport of 841473: fixed issue that the "[ ] Show 'Delete' command" for the context menu did not work

@David: the same issue occurs in Konqueror (settings/konq/behavior.cpp) - may I apply the fix there too?

CCBUG: 167773
CCMAIL: faure@kde.org
------------------------------------------------------------------------
r841477 | ppenz | 2008-08-03 12:50:32 +0200 (Sun, 03 Aug 2008) | 1 line

Backport: warning--
------------------------------------------------------------------------
r841623 | ossi | 2008-08-03 19:36:48 +0200 (Sun, 03 Aug 2008) | 2 lines

backport 841621: adjust size of injected frame dynamically

------------------------------------------------------------------------
r841751 | sebsauer | 2008-08-04 03:43:06 +0200 (Mon, 04 Aug 2008) | 3 lines

backport r841750
delay the react-to-model setup what fixes an assert I was able to catch. Let's praise the great flexibility QPersistentModelIndex provides compared to the way things where mapping together before :)

------------------------------------------------------------------------
r841782 | scripty | 2008-08-04 06:54:46 +0200 (Mon, 04 Aug 2008) | 1 line

SVN_SILENT made messages (.desktop file)
------------------------------------------------------------------------
r842013 | pino | 2008-08-04 15:59:39 +0200 (Mon, 04 Aug 2008) | 2 lines

SVN_SILENT unused parameter

------------------------------------------------------------------------
r842014 | pino | 2008-08-04 16:00:30 +0200 (Mon, 04 Aug 2008) | 2 lines

query the property that was requested

------------------------------------------------------------------------
r842241 | aseigo | 2008-08-05 02:24:13 +0200 (Tue, 05 Aug 2008) | 3 lines

backport 842231 fixing bug 168312
CCBUG:168312

------------------------------------------------------------------------
r842273 | scripty | 2008-08-05 06:53:13 +0200 (Tue, 05 Aug 2008) | 1 line

SVN_SILENT made messages (.desktop file)
------------------------------------------------------------------------
r842464 | zander | 2008-08-05 13:00:19 +0200 (Tue, 05 Aug 2008) | 2 lines

Backport sorting fix by thiago.

------------------------------------------------------------------------
r842488 | lunakl | 2008-08-05 13:59:02 +0200 (Tue, 05 Aug 2008) | 3 lines

Backport r841517 (Fixed XRender smooth scaling advanced setting not signalling a change).


------------------------------------------------------------------------
r842492 | lunakl | 2008-08-05 14:04:14 +0200 (Tue, 05 Aug 2008) | 4 lines

Place in MaximizeArea, patch by Andreas Noever.
BUG: 166116


------------------------------------------------------------------------
r842514 | ervin | 2008-08-05 15:00:16 +0200 (Tue, 05 Aug 2008) | 2 lines

There's no such extra argument in QString::localeAwareCompare().

------------------------------------------------------------------------
r842537 | lunakl | 2008-08-05 15:41:23 +0200 (Tue, 05 Aug 2008) | 4 lines

Sync r835521 from oxygen.
BUG: 161271


------------------------------------------------------------------------
r842773 | adridg | 2008-08-05 23:37:27 +0200 (Tue, 05 Aug 2008) | 1 line

Happy constructor pattern; needs a forward port
------------------------------------------------------------------------
r843070 | lunakl | 2008-08-06 13:27:43 +0200 (Wed, 06 Aug 2008) | 4 lines

Detect save path change, patch by Damien Gombault.
BUG: 164942


------------------------------------------------------------------------
r843186 | mueller | 2008-08-06 19:21:22 +0200 (Wed, 06 Aug 2008) | 1 line

backport samba 3.2 patch
------------------------------------------------------------------------
r843236 | alexmerry | 2008-08-06 21:27:19 +0200 (Wed, 06 Aug 2008) | 5 lines

Backport fix: don't refuse to change the background if there is only one file in the slideshow, since it may be changed by an external program.

CCBUG: 163209


------------------------------------------------------------------------
r843366 | scripty | 2008-08-07 06:47:53 +0200 (Thu, 07 Aug 2008) | 1 line

SVN_SILENT made messages (.desktop file)
------------------------------------------------------------------------
r843452 | lueck | 2008-08-07 11:30:29 +0200 (Thu, 07 Aug 2008) | 2 lines

replace Applet Manuals entry in khelpcenters navigation tree with Plasma Manual to make the plasma doc visible, one new string (Plasma Manual)
CCMAIL:kde-i18n-doc@kde.org
------------------------------------------------------------------------
r843598 | lunakl | 2008-08-07 13:51:42 +0200 (Thu, 07 Aug 2008) | 3 lines

Don't lose the desktop submenu in Alt+F3.


------------------------------------------------------------------------
r843717 | alexmerry | 2008-08-07 19:38:21 +0200 (Thu, 07 Aug 2008) | 5 lines

Backport fix: don't scale user's image.

CCBUG: 164552


------------------------------------------------------------------------
r843753 | ilic | 2008-08-07 21:15:15 +0200 (Thu, 07 Aug 2008) | 1 line

Enable i18n for config reads. (bport: 843752)
------------------------------------------------------------------------
r843789 | ppenz | 2008-08-07 23:48:29 +0200 (Thu, 07 Aug 2008) | 1 line

Backport of 843787: use the global setting for the "Show Delete" command
------------------------------------------------------------------------
r843838 | scripty | 2008-08-08 06:52:57 +0200 (Fri, 08 Aug 2008) | 1 line

SVN_SILENT made messages (.desktop file)
------------------------------------------------------------------------
r843908 | fabo | 2008-08-08 11:51:22 +0200 (Fri, 08 Aug 2008) | 5 lines

backport Qt4.4.1/systemtray fix to 4.1 branch.

CCBUG: 168007
CCMAIL: jasonbstubbs@gmail.com

------------------------------------------------------------------------
r844041 | alexmerry | 2008-08-08 15:27:38 +0200 (Fri, 08 Aug 2008) | 5 lines

Backport fix: respect the ShowDeleteCommand option, as set in Dolphin/Konqueror.

CCBUG: 163701


------------------------------------------------------------------------
r844089 | alexmerry | 2008-08-08 19:16:05 +0200 (Fri, 08 Aug 2008) | 5 lines

Backport fix: don't try to make an icon with a data: URI - Icon can't handle them.

CCBUG: 164120


------------------------------------------------------------------------
r844269 | scripty | 2008-08-09 08:06:40 +0200 (Sat, 09 Aug 2008) | 1 line

SVN_SILENT made messages (.desktop file)
------------------------------------------------------------------------
r844660 | scripty | 2008-08-10 07:03:12 +0200 (Sun, 10 Aug 2008) | 1 line

SVN_SILENT made messages (.desktop file)
------------------------------------------------------------------------
r844689 | dfaure | 2008-08-10 11:05:33 +0200 (Sun, 10 Aug 2008) | 2 lines

Fix for people without xrender (had this lying around for some time)

------------------------------------------------------------------------
r844693 | dfaure | 2008-08-10 11:10:50 +0200 (Sun, 10 Aug 2008) | 2 lines

Re-add a openUrl implementation so that embedding konsolepart into konqueror works again. #153649.

------------------------------------------------------------------------
r844945 | ereslibre | 2008-08-11 03:53:44 +0200 (Mon, 11 Aug 2008) | 2 lines

Backport fix  of comment and name of applets dissapearing

------------------------------------------------------------------------
r845031 | scripty | 2008-08-11 07:03:07 +0200 (Mon, 11 Aug 2008) | 1 line

SVN_SILENT made messages (.desktop file)
------------------------------------------------------------------------
r845165 | mlaurent | 2008-08-11 12:02:49 +0200 (Mon, 11 Aug 2008) | 6 lines

Backport:
fix: "I don't want to see i18n error message about empty message"
I want to see an empty text.
and we use utf8()


------------------------------------------------------------------------
r845387 | alexmerry | 2008-08-11 17:24:56 +0200 (Mon, 11 Aug 2008) | 5 lines

Also backport contraints-before-init fix to simpleapplet in 4.1.

CCBUG:167312


------------------------------------------------------------------------
r845391 | alexmerry | 2008-08-11 17:32:27 +0200 (Mon, 11 Aug 2008) | 5 lines

Don't crash if we get constraintsEvent before init.

CCBUG: 168668


------------------------------------------------------------------------
r845423 | alexmerry | 2008-08-11 18:33:59 +0200 (Mon, 11 Aug 2008) | 5 lines

SVN_SILENT:

Add in parentheses to make evaluation order blatantly obvious.


------------------------------------------------------------------------
r845524 | alexmerry | 2008-08-12 01:02:39 +0200 (Tue, 12 Aug 2008) | 3 lines

Memory leak.


------------------------------------------------------------------------
r845550 | sebsauer | 2008-08-12 02:06:19 +0200 (Tue, 12 Aug 2008) | 3 lines

backport r845549
Seems it's not enough to delay the setup cause I catched a assert while working on KWord :-/ So, let's be even more explicit.

------------------------------------------------------------------------
r845590 | scripty | 2008-08-12 06:59:46 +0200 (Tue, 12 Aug 2008) | 1 line

SVN_SILENT made messages (.desktop file)
------------------------------------------------------------------------
r845646 | lunakl | 2008-08-12 10:31:07 +0200 (Tue, 12 Aug 2008) | 3 lines

Make internal QWidget's override_redirect, just in case.


------------------------------------------------------------------------
r845705 | trueg | 2008-08-12 12:21:42 +0200 (Tue, 12 Aug 2008) | 1 line

Backport from trunk: crash fix when stopping a service that is not yet initialized
------------------------------------------------------------------------
r845815 | mkretz | 2008-08-12 14:55:44 +0200 (Tue, 12 Aug 2008) | 2 lines

backport: devices from the platform plugin have a negative number since 4.1

------------------------------------------------------------------------
r845816 | mkretz | 2008-08-12 14:55:47 +0200 (Tue, 12 Aug 2008) | 2 lines

backport: fix off-by-one-error so that ceaseToExist can find the right KConfigGroup

------------------------------------------------------------------------
r845848 | alexmerry | 2008-08-12 15:57:02 +0200 (Tue, 12 Aug 2008) | 3 lines

Clean up KColorScheme; remove unused member.


------------------------------------------------------------------------
r845894 | hindenburg | 2008-08-12 17:27:47 +0200 (Tue, 12 Aug 2008) | 4 lines

Fix crash for regexp's that return matchLength() == 0 such as \b

BUG: 168434

------------------------------------------------------------------------
r845905 | alexmerry | 2008-08-12 17:51:44 +0200 (Tue, 12 Aug 2008) | 5 lines

Backport fix: be a bit more random, so that we don't generate the same sequence on different desktops on fast computers.

CCBUG: 166378


------------------------------------------------------------------------
r845941 | alexmerry | 2008-08-12 18:49:57 +0200 (Tue, 12 Aug 2008) | 5 lines

Fix system tray display on the desktop.

CCBUG: 166445


------------------------------------------------------------------------
r845986 | alexmerry | 2008-08-12 20:45:17 +0200 (Tue, 12 Aug 2008) | 5 lines

Backport fix: update the entire pager when something changed on one desktop, so that dragging windows between desktops with Active Borders enabled shows up in the pager properly.

CCBUG: 166619


------------------------------------------------------------------------
r845990 | ppenz | 2008-08-12 20:47:04 +0200 (Tue, 12 Aug 2008) | 3 lines

Backport of 845987: Use a modeless properties dialog instead of a modal one, when opening it above the viewport.

CCBUG: 168946
------------------------------------------------------------------------
r845996 | ppenz | 2008-08-12 20:59:52 +0200 (Tue, 12 Aug 2008) | 3 lines

Backport of 845995: Assure that the "Close Tab" action gets disabled when only one tab is open.

CCBUG: 168904
------------------------------------------------------------------------
r846139 | scripty | 2008-08-13 07:32:03 +0200 (Wed, 13 Aug 2008) | 1 line

SVN_SILENT made messages (.desktop file)
------------------------------------------------------------------------
r846448 | lunakl | 2008-08-13 15:55:07 +0200 (Wed, 13 Aug 2008) | 4 lines

Fix x/y mismatch, patch by David Benjamin.
BUG: 168995


------------------------------------------------------------------------
r846686 | ereslibre | 2008-08-13 23:02:58 +0200 (Wed, 13 Aug 2008) | 4 lines

Backport r846684 from Albert Astals Cid (aacid).

Make sure konsole catalog is loaded.

------------------------------------------------------------------------
r846735 | edulix | 2008-08-14 02:03:58 +0200 (Thu, 14 Aug 2008) | 4 lines

Backport of fix made in rev 846477.
We basically fix the crash which happens when duplicating a window with the sidepanel open.


------------------------------------------------------------------------
r846762 | scripty | 2008-08-14 07:12:16 +0200 (Thu, 14 Aug 2008) | 1 line

SVN_SILENT made messages (.desktop file)
------------------------------------------------------------------------
r847205 | orlovich | 2008-08-15 01:03:52 +0200 (Fri, 15 Aug 2008) | 3 lines

Fix exit detection here, too, in case konqueror dies for some reason, 
due to kill -9 or something. (Why else wouldn't it exit normally?)

------------------------------------------------------------------------
r847247 | scripty | 2008-08-15 06:53:10 +0200 (Fri, 15 Aug 2008) | 1 line

SVN_SILENT made messages (.desktop file)
------------------------------------------------------------------------
r847282 | menard | 2008-08-15 10:45:53 +0200 (Fri, 15 Aug 2008) | 3 lines

backport 847280 from trunk : fix translation by loading the catalog of libkonq
thanks to sebastien renard

------------------------------------------------------------------------
r847480 | menard | 2008-08-15 15:04:26 +0200 (Fri, 15 Aug 2008) | 2 lines

backport 847477 from trunk, don't display partition of internal drive

------------------------------------------------------------------------
r847669 | aucahuasi | 2008-08-16 00:57:05 +0200 (Sat, 16 Aug 2008) | 1 line

Backport of fix. See bug: 166343.
------------------------------------------------------------------------
r847675 | sitter | 2008-08-16 01:40:30 +0200 (Sat, 16 Aug 2008) | 9 lines

backport improvement in overall graphical appearance
r847581
 + use help-browser as icon and remove khelpcenter
r847602
 + icon updates - use help-contents for contents2 until we have a proper replacement
r847667
 + * fix index.html.in (top-right-konqueror -> top-right)
 + * apply new template to glossary.html.in

------------------------------------------------------------------------
r847943 | mlaurent | 2008-08-16 15:19:51 +0200 (Sat, 16 Aug 2008) | 3 lines

Backport:
Add missing icon

------------------------------------------------------------------------
r848137 | scripty | 2008-08-17 07:03:19 +0200 (Sun, 17 Aug 2008) | 1 line

SVN_SILENT made messages (.desktop file)
------------------------------------------------------------------------
r848399 | habacker | 2008-08-17 18:11:10 +0200 (Sun, 17 Aug 2008) | 1 line

backported from trunk r848160
------------------------------------------------------------------------
r848552 | scripty | 2008-08-18 07:07:45 +0200 (Mon, 18 Aug 2008) | 1 line

SVN_SILENT made messages (.desktop file)
------------------------------------------------------------------------
r848580 | sitter | 2008-08-18 09:29:14 +0200 (Mon, 18 Aug 2008) | 3 lines

backport r848396
* add kcontrol and kinfocenter modules to the manual tree

------------------------------------------------------------------------
r848581 | sitter | 2008-08-18 09:30:46 +0200 (Mon, 18 Aug 2008) | 3 lines

partial backport r848326
* Add icon to plasma section

------------------------------------------------------------------------
r848595 | ervin | 2008-08-18 10:19:40 +0200 (Mon, 18 Aug 2008) | 2 lines

build++

------------------------------------------------------------------------
r848668 | sitter | 2008-08-18 12:21:36 +0200 (Mon, 18 Aug 2008) | 5 lines

backport r848660
  * Fix Next/Prev page feature
   + Use correct links for Next
   + Return false if Prev is triggered on the index.html

------------------------------------------------------------------------
r848776 | lunakl | 2008-08-18 14:54:25 +0200 (Mon, 18 Aug 2008) | 4 lines

Replace XSetTransientForHint() with KWindowSystem::setMainWindow() to make
it work again.


------------------------------------------------------------------------
r848942 | mart | 2008-08-18 20:51:50 +0200 (Mon, 18 Aug 2008) | 3 lines

backport of 848940
(bugfix of 164857)

------------------------------------------------------------------------
r849010 | lueck | 2008-08-18 23:14:11 +0200 (Mon, 18 Aug 2008) | 1 line

install missing docs
------------------------------------------------------------------------
r849032 | abizjak | 2008-08-18 23:51:58 +0200 (Mon, 18 Aug 2008) | 3 lines

better resize handling by following location of drag start
BUG:167833

------------------------------------------------------------------------
r849034 | abizjak | 2008-08-18 23:53:56 +0200 (Mon, 18 Aug 2008) | 2 lines

fix first fade in

------------------------------------------------------------------------
r849036 | abizjak | 2008-08-19 00:03:21 +0200 (Tue, 19 Aug 2008) | 2 lines

Fade applet handle back in if the mouse reenters the applet while it's already fading out.

------------------------------------------------------------------------
r849059 | wviana | 2008-08-19 00:52:10 +0200 (Tue, 19 Aug 2008) | 2 lines

backport r832013 repaint widget on request

------------------------------------------------------------------------
r849136 | scripty | 2008-08-19 07:11:36 +0200 (Tue, 19 Aug 2008) | 1 line

SVN_SILENT made messages (.desktop file)
------------------------------------------------------------------------
r849455 | ervin | 2008-08-19 17:37:57 +0200 (Tue, 19 Aug 2008) | 3 lines

Initialized merge tracking via "svnmerge" with revisions "1-849447" from 
svn+ssh://svn.kde.org/home/kde/branches/kdepim/enterprise4/kdebase-4.1-branch

------------------------------------------------------------------------
r849589 | reitelbach | 2008-08-19 21:46:24 +0200 (Tue, 19 Aug 2008) | 2 lines

fix currency symbol prefix and negativ prefix position

------------------------------------------------------------------------
r849657 | alexmerry | 2008-08-19 23:38:03 +0200 (Tue, 19 Aug 2008) | 4 lines

Backport fix: Don't call constraintsUpdated() before init(), even if an event loop is created in an applet constructor.



------------------------------------------------------------------------
r849835 | abizjak | 2008-08-20 11:42:36 +0200 (Wed, 20 Aug 2008) | 4 lines

backport r849828
Fix a rare bug when a new applet handle is created before the previous one 
is destroyed, causing the applet not to follow the handle when moved or fail to appear.

------------------------------------------------------------------------
r849932 | lunakl | 2008-08-20 15:46:30 +0200 (Wed, 20 Aug 2008) | 3 lines

Fix introspection interface.


------------------------------------------------------------------------
r849984 | ereslibre | 2008-08-20 17:19:32 +0200 (Wed, 20 Aug 2008) | 2 lines

Backport of fix that kioclient was never being quit

------------------------------------------------------------------------
r849990 | ereslibre | 2008-08-20 17:27:46 +0200 (Wed, 20 Aug 2008) | 2 lines

Backport. Honor delayed quit

------------------------------------------------------------------------
r850266 | mlaurent | 2008-08-21 08:55:33 +0200 (Thu, 21 Aug 2008) | 3 lines

Backport:
Fix pnb when dialog box is called third

------------------------------------------------------------------------
r850354 | menard | 2008-08-21 12:22:58 +0200 (Thu, 21 Aug 2008) | 2 lines

backport of commit r850353 : Fix a focus crash when plasma quit

------------------------------------------------------------------------
r850528 | ossi | 2008-08-21 19:46:16 +0200 (Thu, 21 Aug 2008) | 2 lines

backport 850526: force use of installDir, so KDEDIRS does not confuse us

------------------------------------------------------------------------
r850685 | alexmerry | 2008-08-22 03:19:54 +0200 (Fri, 22 Aug 2008) | 5 lines

Backport fix to respond to battery insertion and removal.

CCBUG: 164660


------------------------------------------------------------------------
r850943 | lunakl | 2008-08-22 17:58:34 +0200 (Fri, 22 Aug 2008) | 6 lines

Make sure idling does not actually cause big load by a repeating
quick timer caused by dynamically adjusting the next repaint
when using vsync. Ideally there should be no idle ticks at all,
somewhen later.


------------------------------------------------------------------------
r850975 | alexmerry | 2008-08-22 19:39:41 +0200 (Fri, 22 Aug 2008) | 3 lines

Fix memory leak for timed out startup notifications.


------------------------------------------------------------------------
r851037 | bram | 2008-08-22 21:21:25 +0200 (Fri, 22 Aug 2008) | 3 lines

Respect option "Show window button tooltips".

BUG:162648
------------------------------------------------------------------------
r851472 | alexmerry | 2008-08-23 20:21:25 +0200 (Sat, 23 Aug 2008) | 3 lines

Fix memory leak


------------------------------------------------------------------------
r851473 | alexmerry | 2008-08-23 20:34:27 +0200 (Sat, 23 Aug 2008) | 3 lines

Fix memory leak


------------------------------------------------------------------------
r851474 | alexmerry | 2008-08-23 20:34:56 +0200 (Sat, 23 Aug 2008) | 3 lines

Fix memory leak


------------------------------------------------------------------------
r851493 | bram | 2008-08-23 22:40:12 +0200 (Sat, 23 Aug 2008) | 1 line

Fix memleak.
------------------------------------------------------------------------
r851505 | alexmerry | 2008-08-23 23:11:51 +0200 (Sat, 23 Aug 2008) | 7 lines

Backport r851504: calculate item positions correctly when some are hidden.

Fixes bug where the last item in the system tab was only partially displayed.

CCBUG: 163930


------------------------------------------------------------------------
r851512 | alexmerry | 2008-08-24 00:00:29 +0200 (Sun, 24 Aug 2008) | 7 lines

Hopefully fix bug 165051.

Clear focus on Corona before ~QGraphicsView runs.  See comment for more info.

CCBUG: 165051


------------------------------------------------------------------------
r852001 | scripty | 2008-08-25 07:25:28 +0200 (Mon, 25 Aug 2008) | 1 line

SVN_SILENT made messages (.desktop file)
------------------------------------------------------------------------
r852231 | sengels | 2008-08-25 17:46:51 +0200 (Mon, 25 Aug 2008) | 1 line

backport fix
------------------------------------------------------------------------
r852235 | sengels | 2008-08-25 17:54:28 +0200 (Mon, 25 Aug 2008) | 1 line

backport fixes r849048 and r851699
------------------------------------------------------------------------
r852249 | sengels | 2008-08-25 18:29:55 +0200 (Mon, 25 Aug 2008) | 1 line

backport fix
------------------------------------------------------------------------
r852250 | sengels | 2008-08-25 18:30:43 +0200 (Mon, 25 Aug 2008) | 1 line

don't expose non-X11 stuff
------------------------------------------------------------------------
r852431 | aacid | 2008-08-25 23:01:08 +0200 (Mon, 25 Aug 2008) | 4 lines

Backport r852429

the kcm needs the dolphin catalog, otherwise konqueror shows it untranslated, kudos to Marta Rybczynska for discovering and reporting

------------------------------------------------------------------------
r852449 | sitter | 2008-08-25 23:21:06 +0200 (Mon, 25 Aug 2008) | 3 lines

backport r852383
+ move kteatime application icon to application source, and install it into hicolor, since all application icons should go there and not oxygen

------------------------------------------------------------------------
r852541 | sengels | 2008-08-26 01:28:40 +0200 (Tue, 26 Aug 2008) | 2 lines

fix linking under windows

------------------------------------------------------------------------
r852542 | sengels | 2008-08-26 01:29:04 +0200 (Tue, 26 Aug 2008) | 1 line

fix for mingw
------------------------------------------------------------------------
r852543 | sengels | 2008-08-26 01:30:05 +0200 (Tue, 26 Aug 2008) | 1 line

make kcontrol windows proof
------------------------------------------------------------------------
r852544 | sengels | 2008-08-26 01:30:44 +0200 (Tue, 26 Aug 2008) | 1 line

backport plasma changes from various revisions by segato
------------------------------------------------------------------------
r852554 | sengels | 2008-08-26 02:00:18 +0200 (Tue, 26 Aug 2008) | 1 line

commit overall file too
------------------------------------------------------------------------
r852570 | sengels | 2008-08-26 03:29:34 +0200 (Tue, 26 Aug 2008) | 1 line

fix the rest of plasma so it gets build in the end
------------------------------------------------------------------------
r852572 | sengels | 2008-08-26 03:39:34 +0200 (Tue, 26 Aug 2008) | 1 line

compile fix for msvc
------------------------------------------------------------------------
r852577 | sengels | 2008-08-26 04:01:57 +0200 (Tue, 26 Aug 2008) | 1 line

fix another msvc issue
------------------------------------------------------------------------
r852581 | sengels | 2008-08-26 04:12:51 +0200 (Tue, 26 Aug 2008) | 1 line

enable folderview on windows
------------------------------------------------------------------------
r852584 | sengels | 2008-08-26 04:28:37 +0200 (Tue, 26 Aug 2008) | 1 line

backport fixes
------------------------------------------------------------------------
r852612 | mlaurent | 2008-08-26 08:30:32 +0200 (Tue, 26 Aug 2008) | 3 lines

Backport:
custom line was not activated (when necessary)

------------------------------------------------------------------------
r852673 | edulix | 2008-08-26 11:55:00 +0200 (Tue, 26 Aug 2008) | 3 lines

backport: now "close other tabs" action should work fine in 4.1 branch too


------------------------------------------------------------------------
r852815 | alexmerry | 2008-08-26 19:26:52 +0200 (Tue, 26 Aug 2008) | 3 lines

Backport the improved clearFocus() fix from r852814


------------------------------------------------------------------------
r852930 | bram | 2008-08-26 23:25:01 +0200 (Tue, 26 Aug 2008) | 1 line

Fix icons.
------------------------------------------------------------------------
r852941 | bram | 2008-08-26 23:45:04 +0200 (Tue, 26 Aug 2008) | 1 line

This file was forgotten at backport time.
------------------------------------------------------------------------
r852952 | sebsauer | 2008-08-27 00:04:09 +0200 (Wed, 27 Aug 2008) | 8 lines

backport r852950
* fix default-button failed to do anything
* pre-select "Current" after (re-)load
* always disable the "Remove Scheme" button for the internal "Default" and "Current" schemes

I forgot to say: Thanks to Judith for the hint! :)


------------------------------------------------------------------------
r853000 | ereslibre | 2008-08-27 01:43:59 +0200 (Wed, 27 Aug 2008) | 4 lines

Backport revision 852998.

CCMAIL: peter.penz@gmx.at

------------------------------------------------------------------------
r853003 | ereslibre | 2008-08-27 01:52:09 +0200 (Wed, 27 Aug 2008) | 2 lines

Backport revision 853002

------------------------------------------------------------------------
r853046 | mpyne | 2008-08-27 05:26:55 +0200 (Wed, 27 Aug 2008) | 1 line

Backport kcm_screensaver icon name fix to 4.1
------------------------------------------------------------------------
r853062 | scripty | 2008-08-27 08:04:34 +0200 (Wed, 27 Aug 2008) | 1 line

SVN_SILENT made messages (.desktop file)
------------------------------------------------------------------------
r853127 | ereslibre | 2008-08-27 11:31:19 +0200 (Wed, 27 Aug 2008) | 2 lines

Backport of commit 853125

------------------------------------------------------------------------
r853134 | dfaure | 2008-08-27 11:51:21 +0200 (Wed, 27 Aug 2008) | 2 lines

Backport: Fix for bug found by ereslibre: when detaching a tab the new window was not loading the profile.

------------------------------------------------------------------------
r853141 | sitter | 2008-08-27 12:27:26 +0200 (Wed, 27 Aug 2008) | 6 lines

remove NoDisplay as per r849965
<apachelogger> Riddell: http://websvn.kde.org/?view=rev&revision=849965 did you backport that?
<Riddell> apachelogger: nope
<apachelogger> Riddell: shouldn't we backport it?
<Riddell> apachelogger: can do yes

------------------------------------------------------------------------
r853369 | huynhhuu | 2008-08-27 18:21:06 +0200 (Wed, 27 Aug 2008) | 2 lines

Backport from trunk (r852916)

------------------------------------------------------------------------
r853477 | alexmerry | 2008-08-27 21:19:45 +0200 (Wed, 27 Aug 2008) | 5 lines

Containment should delete the handle when its applet is destroyed, so that it can be removed from d->handles.

BUG: 166801


------------------------------------------------------------------------
r853529 | alexmerry | 2008-08-27 22:16:46 +0200 (Wed, 27 Aug 2008) | 5 lines

Fill the submenus up front, rather than on demand, so that they can be placed correctly.

CCBUG: 166847


------------------------------------------------------------------------
r853575 | alexmerry | 2008-08-28 00:17:01 +0200 (Thu, 28 Aug 2008) | 3 lines

Bogus foreach.


------------------------------------------------------------------------
r853709 | scripty | 2008-08-28 08:06:29 +0200 (Thu, 28 Aug 2008) | 1 line

SVN_SILENT made messages (.desktop file)
------------------------------------------------------------------------
