<?xml version="1.0" encoding="UTF-8" standalone="no"?>
<!DOCTYPE svg PUBLIC "-//W3C//DTD SVG 20010904//EN"
"http://www.w3.org/TR/2001/REC-SVG-20010904/DTD/svg10.dtd">
<!-- Generator: Adobe Illustrator 10.0.3, SVG Export Plug-In . SVG Version: 3.0.0 Build 77)  -->
<svg
   width="180.793"
   height="179.856"
   viewBox="0 0 180.793 179.856"
   overflow="visible"
   enable-background="new 0 0 180.793 179.856"
   xml:space="preserve"
   id="svg1061"
   sodipodi:version="0.32"
   inkscape:version="0.40"
   sodipodi:docname="kde.svgz"
   sodipodi:docbase="/home/frank/Desktop"
   xmlns="http://www.w3.org/2000/svg"
   xmlns:cc="http://web.resource.org/cc/"
   xmlns:inkscape="http://www.inkscape.org/namespaces/inkscape"
   xmlns:sodipodi="http://sodipodi.sourceforge.net/DTD/sodipodi-0.dtd"
   xmlns:rdf="http://www.w3.org/1999/02/22-rdf-syntax-ns#"
   xmlns:xml="http://www.w3.org/XML/1998/namespace"
   xmlns:a="http://ns.adobe.com/AdobeSVGViewerExtensions/3.0/"
   xmlns:dc="http://purl.org/dc/elements/1.1/"
   xmlns:xlink="http://www.w3.org/1999/xlink"><defs
   id="defs1093">


                <linearGradient
   id="XMLID_1_"
   gradientUnits="userSpaceOnUse"
   x1="90.397"
   y1="123.7812"
   x2="90.397"
   y2="21.4445">
                        <stop
   offset="0.0000000"
   style="stop-color:#ffffff;stop-opacity:1.0000000;"
   id="stop1071" />



                        <stop
   offset="1.0000000"
   style="stop-color:#ffffff;stop-opacity:0.0000000;"
   id="stop1073" />



                        <a:midPointStop
   offset="0"
   style="stop-color:#FFFFFF"
   id="midPointStop1075" />



                        <a:midPointStop
   offset="0.5"
   style="stop-color:#FFFFFF"
   id="midPointStop1077" />



                        <a:midPointStop
   offset="1"
   style="stop-color:#000000"
   id="midPointStop1079" />



                </linearGradient>







        <linearGradient
   inkscape:collect="always"
   xlink:href="#XMLID_1_"
   id="linearGradient1746"
   gradientUnits="userSpaceOnUse"
   x1="94.897484"
   y1="34.140015"
   x2="94.897484"
   y2="107.98685" />


</defs>


<metadata
   id="metadata1092">
  <rdf:RDF
   id="RDF1094">
    <cc:Work
   rdf:about=""
   id="Work1095">
      <dc:format
   id="format1096">image/svg+xml</dc:format>


      <dc:type
   id="type1098"
   rdf:resource="http://purl.org/dc/dcmitype/StillImage" />


    </cc:Work>


  </rdf:RDF>


</metadata>


<sodipodi:namedview
   id="base"
   pagecolor="#ffffff"
   bordercolor="#666666"
   borderopacity="1.0"
   inkscape:pageopacity="0.0"
   inkscape:pageshadow="2"
   inkscape:zoom="1.1003234"
   inkscape:cx="294.69736"
   inkscape:cy="-21.959639"
   inkscape:window-width="1016"
   inkscape:window-height="681"
   inkscape:window-x="0"
   inkscape:window-y="0"
   inkscape:current-layer="svg1061" />



        <path
   fill-rule="evenodd"
   clip-rule="evenodd"
   fill="#0071BC"
   d="M20.305,7.488h140.184c7.057,0,12.816,5.76,12.816,12.816    v139.248c0,7.057-5.76,12.889-12.816,12.889H20.305c-7.057,0-12.816-5.832-12.816-12.889V20.304    C7.488,13.248,13.248,7.488,20.305,7.488z M18.721,0h143.352c10.297,0,18.721,8.424,18.721,18.72v142.416    c0,10.297-8.424,18.721-18.721,18.721H18.721C8.424,179.856,0,171.433,0,161.136V18.72C0,8.424,8.424,0,18.721,0z"
   id="path1065"
   style="fill:#0071bc;fill-rule:evenodd;" />


<path
   fill-rule="evenodd"
   clip-rule="evenodd"
   fill="#0071BC"
   d="M20.592,10.296h139.609c5.615,0,10.223,4.608,10.223,10.296    v138.745c0,5.615-4.607,10.223-10.223,10.223H20.592c-5.615,0-10.223-4.607-10.223-10.223V20.592    C10.369,14.904,14.977,10.296,20.592,10.296z"
   id="path1067"
   style="fill:#0071bc;fill-rule:evenodd;" />


<path
   opacity="0.65"
   fill="url(#XMLID_1_)"
   d="M20.592,14.548c-3.292,0-5.971,2.711-5.971,6.044c0,0,0,84.021,0,90.409    c7.323-6.857,31.309-25.342,77.312-25.342c50.34,0,71.559-22.324,74.238-25.398c0-1.009,0-39.668,0-39.668    c0-3.333-2.679-6.044-5.971-6.044H20.592z"
   id="path1082"
   style="opacity:0.64999998;fill:url(#linearGradient1746);fill-opacity:1.0;" />


<path
   fill-rule="evenodd"
   clip-rule="evenodd"
   fill="#FFFFFF"
   d="M76.752,24.552l22.752-1.656c0,13.68,0,27.288,0,40.896    c9.072-13.68,19.152-27.288,30.527-40.464l24.408,6.192c-10.943,12.168-22.104,25.704-31.031,39.24    c8.568,14.4,18,27.577,30.6,42.552l-23.543,6.984c-13.176-14.76-21.096-28.944-30.961-44.208v40.536l-22.752,2.881V24.552z"
   id="path1084"
   style="fill:#ffffff;fill-rule:evenodd;" />


<path
   fill-rule="evenodd"
   clip-rule="evenodd"
   fill="#FFFFFF"
   d="M99.721,137.017c13.32-2.809,9.936-6.84,20.807-0.504    l7.057,4.967c1.297,0.648,2.52,1.801,3.744,0.576c2.664-2.52,5.256-5.111,7.92-7.631c1.152-1.225,0-2.594-0.576-3.529H138.6    l-5.111-7.271l-3.385,1.225c-0.863,0.576-2.016,0.287-3.023-1.08l-7.488-9.793c-6.912,9.576-18.072,15.768-30.744,15.768    c-20.879,0-37.871-16.99-37.871-37.871c0-14.832,8.568-27.72,21.023-33.912v-8.712c-0.432,0.216-0.863,0.36-1.225,0.504    c-4.895,2.016-5.184,2.952-13.176-1.656l-7.055-5.04c-1.297-0.576-2.521-1.8-3.744-0.576c-2.664,2.592-5.256,5.184-7.92,7.776    c-1.152,1.152,0.072,2.592,0.576,3.528l5.398,7.632l3.961,5.616c0.576,0.792,0.791,0.864,0.504,1.44    c-0.359,0.576-0.648,1.08-1.008,1.656c-5.256,9.072-1.584,9.792-12.816,12.744l-8.568,1.44c-1.295,0.432-3.023,0.432-3.096,2.232    c0,3.672-0.072,7.344-0.072,11.016c-0.072,1.656,1.801,1.801,2.881,2.088l9.145,1.656l6.84,1.225c0.936,0.145,1.15,0,1.367,0.719    c2.809,12.168,6.48,9.289,0.359,19.873l-4.967,7.127c-0.648,1.225-1.801,2.449-0.576,3.672c2.592,2.664,5.111,5.258,7.703,7.922    c1.152,1.15,2.592-0.072,3.529-0.576l7.631-5.4l5.688-3.889c0.793-0.648,0.865-0.863,1.441-0.504    c11.375,7.129,11.807,2.016,15.119,14.041l1.584,8.566c0.432,1.297,0.504,2.953,2.232,3.025c3.672,0,7.416,0,11.088,0    c1.656,0,1.801-1.873,2.016-2.953l1.584-9.215l1.08-6.77C99.576,137.521,99.576,137.231,99.721,137.017z M113.473,131.257    c-0.072,0.07-0.145,0.07-0.217,0.07c0.072,0,0.072-0.07,0.145-0.07H113.473z M100.439,136.728    c-0.215,0.072-0.504,0.145-0.719,0.289C99.863,136.872,100.08,136.8,100.439,136.728z"
   id="path1086"
   style="fill:#ffffff;fill-rule:evenodd;" />


<path
   fill-rule="evenodd"
   clip-rule="evenodd"
   fill="#FFFFFF"
   d="M89.137,127.009c11.951,0,22.463-6.049,28.799-15.266    l-0.432-0.719c-7.416,8.207-15.695,13.535-28.439,13.824c-15.84,0.287-31.896-13.896-31.969-32.473    c-0.143-11.952,5.4-20.016,14.832-25.776v-5.04c-10.584,5.976-17.783,17.424-17.783,30.457    C54.145,111.239,69.84,127.009,89.137,127.009z"
   id="path1088"
   style="fill:#ffffff;fill-rule:evenodd;" />



</svg>
