------------------------------------------------------------------------
r878940 | scripty | 2008-11-02 07:28:00 +0000 (Sun, 02 Nov 2008) | 1 line

SVN_SILENT made messages (.desktop file)
------------------------------------------------------------------------
r879890 | rpedersen | 2008-11-04 09:46:21 +0000 (Tue, 04 Nov 2008) | 1 line

backport 879889
------------------------------------------------------------------------
r880701 | dfaure | 2008-11-06 08:50:49 +0000 (Thu, 06 Nov 2008) | 2 lines

Backport agulbra-make-member fix

------------------------------------------------------------------------
r885991 | pino | 2008-11-18 11:48:25 +0000 (Tue, 18 Nov 2008) | 2 lines

fixuifiles

------------------------------------------------------------------------
r891478 | scripty | 2008-12-02 08:12:09 +0000 (Tue, 02 Dec 2008) | 1 line

SVN_SILENT made messages (.desktop file)
------------------------------------------------------------------------
r891883 | scripty | 2008-12-03 08:22:00 +0000 (Wed, 03 Dec 2008) | 1 line

SVN_SILENT made messages (.desktop file)
------------------------------------------------------------------------
r892740 | scripty | 2008-12-05 07:38:04 +0000 (Fri, 05 Dec 2008) | 1 line

SVN_SILENT made messages (.desktop file)
------------------------------------------------------------------------
r893663 | scripty | 2008-12-07 07:51:39 +0000 (Sun, 07 Dec 2008) | 1 line

SVN_SILENT made messages (.desktop file)
------------------------------------------------------------------------
r895177 | scripty | 2008-12-10 08:20:03 +0000 (Wed, 10 Dec 2008) | 1 line

SVN_SILENT made messages (.desktop file)
------------------------------------------------------------------------
r895496 | woebbe | 2008-12-10 21:29:37 +0000 (Wed, 10 Dec 2008) | 1 line

bump version number
------------------------------------------------------------------------
r897473 | scripty | 2008-12-16 07:24:34 +0000 (Tue, 16 Dec 2008) | 1 line

SVN_SILENT made messages (.desktop file)
------------------------------------------------------------------------
r897934 | scripty | 2008-12-17 08:08:56 +0000 (Wed, 17 Dec 2008) | 1 line

SVN_SILENT made messages (.desktop file)
------------------------------------------------------------------------
r905814 | scripty | 2009-01-05 07:38:44 +0000 (Mon, 05 Jan 2009) | 1 line

SVN_SILENT made messages (.desktop file)
------------------------------------------------------------------------
